Imbalance Class
…
      role #variables
   outcome          1
 predictor         13

Operations:

Novel factor level assignment for all_nominal_predictors()
Collapsing factor levels for all_nominal_predictors()
Unknown factor level assignment for all_nominal_predictors()
Median Imputation for all_numeric_predictors()
Zero variance filter on all_predictors()

bird_rec %>% prep() %>% juice()

# A tibble: 21,000 x 14
   flight_impact precipitation visibility flight_phase engines incident_year
   <fct>         <fct>         <fct>      <fct>          <dbl>         <dbl>
 1 unknown       unknown       DAY        LANDING ROLL       2          1996
 2 unknown       unknown       unknown    unknown            2          1999
 3 NONE          NONE          DAY        LANDING ROLL       2          2011
 4 NONE          NONE          NIGHT      APPROACH           2          2007
 5 unknown       unknown       NIGHT      APPROACH           2          2007
 6 unknown       unknown       unknown    unknown            2          2013
 7 unknown       unknown       unknown    APPROACH           2          2002
 8 NONE          FOG           NIGHT      DESCENT            1          2013
 9 unknown       unknown       unknown    unknown            2          2015
10 unknown       unknown       NIGHT      LANDING ROLL       2          2007
# ... with 20,990 more rows, and 8 more variables: incident_month <dbl>,
#   species_id <fct>, engine_type <fct>, aircraft_model <dbl>,
#   species_quantity <fct>, height <dbl>, speed <dbl>, damaged <fct>
…
Operations:

Novel factor level assignment for all_nominal_predictors()
Collapsing factor levels for all_nominal_predictors()
Unknown factor level assignment for all_nominal_predictors()
Median Imputation for all_numeric_predictors()
Zero variance filter on all_predictors()
Dummy variables from all_nominal_predictors()
SMOTE based on damaged

bal_rec %>% prep() %>%  juice()

# A tibble: 38,402 x 52
   engines incident_year incident_month aircraft_model height speed
     <dbl>         <dbl>          <dbl>          <dbl>  <dbl> <dbl>
 1       2          1996             11             22      0    80
 2       2          1999              6             26     50   137
 3       2          2011             12             24      0   137
 4       2          2007              9             42    300   130
 5       2          2007              9             22     50   140
 6       2          2013              5             22     50   137
 7       2          2002              5             97     50   137
 8       1          2013              5              7   2700   110
 9       2          2015              7             22     50   137
10       2          2007              8             22      0   137
# ... with 38,392 more rows, and 46 more variables: flight_impact_NONE <dbl>,
#   flight_impact_OTHER <dbl>, flight_impact_PRECAUTIONARY.LANDING <dbl>,
#   flight_impact_other <dbl>, flight_impact_unknown <dbl>,
#   precipitation_NONE <dbl>, precipitation_RAIN <dbl>,
#   precipitation_other <dbl>, precipitation_unknown <dbl>,
#   visibility_DAY <dbl>, visibility_DUSK <dbl>, visibility_NIGHT <dbl>,
#   visibility_other <dbl>, visibility_unknown <dbl>, flight_phase_CLIMB <dbl>,
#   flight_phase_DESCENT <dbl>, flight_phase_EN.ROUTE <dbl>,
#   flight_phase_LANDING.ROLL <dbl>, flight_phase_TAKEOFF.RUN <dbl>,
…
